…
``` r
# install.packages("devtools")
devtools::install_github("Tina-ye112/kiaora")
```

## Usage

This function contains 3 parameters that are region,district,area.You
could

``` r
library(kiaora)
get_property_auction_price(region = "Northland",district = NULL,area = NULL)
#> # A tibble: 130 x 8
#>    property_address auction_price auction_dates bedrooms bathrooms car_parking
#>    <chr>                    <dbl> <date>           <dbl>     <dbl>       <dbl>
#>  1 31 Moir Street,…        680000 2021-01-28           2         1           1
#>  2 120 Ota Point R…        520000 2021-01-21           4         2           2
#>  3 21 Kemp Road, K…        990000 2021-01-21           3         2           2
#>  4 1 Lincoln Stree…       2600000 2020-12-17           5         3           2
#>  5 5/26 Percy Stre…        487500 2020-12-16           2         1           2
#>  6 40 Hall Road, K…       1096000 2020-12-10           3         2           2
#>  7 39 Percy Street…        570000 2020-12-09           3         1           2
#>  8 93 The Bullock …            NA 2020-12-03           3         2           3
#>  9 7 Brind Road, R…        611000 2020-11-20           2         1           3
#> 10 9B Akiha Street…        330000 2020-11-20           2         1          NA
#> # … with 120 more rows, and 2 more variables: rating_value <dbl>,
#> #   rating_dates <date>
```
…
